Modulos/FSM/gtkws/testFSM.vcd
$date
	Sat Jun 30 20:39:26 2018
$end
$version
	Icarus Verilog
$end
$timescale
	1s
$end
$scope module TB $end
$var wire 4 ! pause [3:0] $end
$var wire 1 " idle $end
$var wire 4 # error_full [3:0] $end
$var wire 4 $ continue [3:0] $end
$var reg 1 % FIFOcontinue0 $end
$var reg 1 & FIFOcontinue1 $end
$var reg 1 ' FIFOcontinue2 $end
$var reg 1 ( FIFOcontinue3 $end
$var reg 1 ) FIFOempty0 $end
$var reg 1 * FIFOempty1 $end
$var reg 1 + FIFOempty2 $end
$var reg 1 , FIFOempty3 $end
$var reg 1 - FIFOerror0 $end
$var reg 1 . FIFOerror1 $end
$var reg 1 / FIFOerror2 $end
$var reg 1 0 FIFOerror3 $end
$var reg 1 1 FIFOfull0 $end
$var reg 1 2 FIFOfull1 $end
$var reg 1 3 FIFOfull2 $end
$var reg 1 4 FIFOfull3 $end
$var reg 1 5 FIFOpause0 $end
$var reg 1 6 FIFOpause1 $end
$var reg 1 7 FIFOpause2 $end
$var reg 1 8 FIFOpause3 $end
$var reg 1 9 clk $end
$var reg 1 : init $end
$var reg 1 ; reset $end
$scope module fsmachine $end
$var wire 1 % FIFOcontinue0 $end
$var wire 1 & FIFOcontinue1 $end
$var wire 1 ' FIFOcontinue2 $end
$var wire 1 ( FIFOcontinue3 $end
$var wire 1 ) FIFOempty0 $end
$var wire 1 * FIFOempty1 $end
$var wire 1 + FIFOempty2 $end
$var wire 1 , FIFOempty3 $end
$var wire 1 - FIFOerror0 $end
$var wire 1 . FIFOerror1 $end
$var wire 1 / FIFOerror2 $end
$var wire 1 0 FIFOerror3 $end
$var wire 1 1 FIFOfull0 $end
$var wire 1 2 FIFOfull1 $end
$var wire 1 3 FIFOfull2 $end
$var wire 1 4 FIFOfull3 $end
$var wire 1 5 FIFOpause0 $end
$var wire 1 6 FIFOpause1 $end
$var wire 1 7 FIFOpause2 $end
$var wire 1 8 FIFOpause3 $end
$var wire 1 9 clk $end
$var wire 1 : init $end
$var wire 1 ; reset $end
$var wire 4 < FIFOpauseOR [3:0] $end
$var wire 4 = FIFOpause [3:0] $end
$var wire 4 > FIFOfull [3:0] $end
$var wire 4 ? FIFOerror [3:0] $end
$var wire 4 @ FIFOempty [3:0] $end
$var wire 4 A FIFOcontinueOR [3:0] $end
$var wire 4 B FIFOcontinue [3:0] $end
$var reg 4 C continue [3:0] $end
$var reg 4 D error_full [3:0] $end
$var reg 1 " idle $end
$var reg 9 E nxtState [8:0] $end
$var reg 4 F pause [3:0] $end
$var reg 9 G state [8:0] $end
$upscope $end
$upscope $end
$enddefinitions $end
#0
$dumpvars
bx G
bx F
b1 E
bx D
bx C
b0 B
b1111 A
b1111 @
b0 ?
b0 >
b0 =
b0 <
0;
1:
09
08
07
06
05
04
03
02
01
00
0/
0.
0-
1,
1+
1*
1)
0(
0'
0&
0%
bx $
bx #
x"
bx !
$end
#2
b10 E
19
#4
09
0:
#6
b100 E
b10 G
19
#8
b0 A
b100 E
09
0,
0+
0*
b0 @
0)
#10
b1000 E
0"
b100 G
19
#12
b1000 E
b1111 <
09
18
17
16
b1111 =
15
#14
b10000 E
b1000 G
19
#16
09
#18
b1000 E
b0 $
b0 C
b1111 !
b1111 F
b10000 G
19
#20
b1000 E
b1111 A
b0 <
09
1(
1'
1&
b1111 B
1%
08
07
06
b0 =
05
#22
b100000 E
b1000 G
19
#24
09
#26
b1000 E
b0 !
b0 F
b1111 $
b1111 C
b100000 G
19
#28
b1000 E
b1010 A
b101 <
09
0'
b1010 B
0%
17
b101 =
15
#30
b1000000 E
b1000 G
19
#32
09
#34
b1000 E
b1010 $
b1010 C
b101 !
b101 F
b1000000 G
19
#36
b1000 E
09
b1 ?
1-
#38
b10000000 E
b1000 G
19
#40
09
#42
bx1 #
bx1 D
b10000000 G
19
#44
09
#46
19
#48
09
#50
19
#52
b1 E
09
1;
#54
b10 E
b1 G
19
